DATA 607â€”Data Science Job Skills
…
hard_skills <- df.1[11:34,]  %>%
  mutate(total = sum(count))%>%
  mutate(job.percentage = count/total)
hard_skills

## # A tibble: 24 x 4
##    condition                     count total job.percentage
##    <fct>                         <dbl> <dbl>          <dbl>
##  1 hardskill_hadoop                 31   197         0.157 
##  2 hardskill_java                   22   197         0.112 
##  3 softskill_leadership             18   197         0.0914
##  4 hardskill_data_mining            18   197         0.0914
##  5 softskill_attention_to_detail    17   197         0.0863
##  6 hardskill_aws                    16   197         0.0812
##  7 hardskill_hive                   16   197         0.0812
##  8 softskill_interpersonal          10   197         0.0508
##  9 hardskill_pivot_table             7   197         0.0355
## 10 hardskill_iOS_App_Development     7   197         0.0355
## # ... with 14 more rows
…
